{
    "KPlugin": {
        "Authors": [
            {
                "Email": "dantti12@gmail.com",
                "Name": "Daniel Nicoletti",
                "Name[ar]": "Daniel Nicoletti",
                "Name[az]": "Daniel Nicoletti",
                "Name[be]": "Daniel Nicoletti",
                "Name[bg]": "Daniel Nicoletti",
                "Name[ca@valencia]": "Daniel Nicoletti",
                "Name[ca]": "Daniel Nicoletti",
                "Name[cs]": "Daniel Nicoletti",
                "Name[da]": "Daniel Nicoletti",
                "Name[de]": "Daniel Nicoletti",
                "Name[en_GB]": "Daniel Nicoletti",
                "Name[es]": "Daniel Nicoletti",
                "Name[eu]": "Daniel Nicoletti",
                "Name[fi]": "Daniel Nicoletti",
                "Name[fr]": "Daniel Nicoletti",
                "Name[hu]": "Daniel Nicoletti",
                "Name[ia]": "Daniel Nicoletti",
                "Name[id]": "Daniel Nicoletti",
                "Name[is]": "Daniel Nicoletti",
                "Name[it]": "Daniel Nicoletti",
                "Name[ka]": "დენიელ ნიკოლეტი",
                "Name[ko]": "Daniel Nicoletti",
                "Name[lt]": "Daniel Nicoletti",
                "Name[nl]": "Daniel Nicoletti",
                "Name[nn]": "Daniel Nicoletti",
                "Name[pl]": "Daniel Nicoletti",
                "Name[pt]": "Daniel Nicoletti",
                "Name[pt_BR]": "Daniel Nicoletti",
                "Name[ro]": "Daniel Nicoletti",
                "Name[ru]": "Daniel Nicoletti",
                "Name[sk]": "Daniel Nicoletti",
                "Name[sl]": "Daniel Nicoletti",
                "Name[sv]": "Daniel Nicoletti",
                "Name[ta]": "டேனியல் நிக்கோலெட்டி",
                "Name[tr]": "Daniel Nicoletti",
                "Name[uk]": "Daniel Nicoletti",
                "Name[x-test]": "xxDaniel Nicolettixx",
                "Name[zh_CN]": "Daniel Nicoletti",
                "Name[zh_TW]": "Daniel Nicoletti"
            }
        ],
        "Category": "Utilities",
        "Description": "List print jobs and manage them",
        "Description[ar]": "يسرد مهام الطّباعة وأدرها",
        "Description[az]": "Çap tapşırıqlarının siyahısı və onların idarə edilməsi",
        "Description[be]": "Вывад задач друку і кіраванне імі",
        "Description[bg]": "Показване и управление на задачите за печат",
        "Description[ca@valencia]": "Llista i gestiona els treballs d'impressió",
        "Description[ca]": "Llista i gestiona els treballs d'impressió",
        "Description[cs]": "Vypsat tiskové úlohy a spravovat je",
        "Description[da]": "Vis udskriftsjob og håndtér dem",
        "Description[de]": "Druckaufträge anzeigen und verwalten",
        "Description[en_GB]": "List print jobs and manage them",
        "Description[es]": "Listar los trabajos de impresión y gestionarlos",
        "Description[eu]": "Zerrendatu inprimatze-lanak eta haiek kudeatu",
        "Description[fi]": "Luettele ja hallitse tulostustöitä",
        "Description[fr]": "Lister les tâches d'impression et les gérer",
        "Description[hu]": "Nyomtatási feladatok listázása és kezelése",
        "Description[ia]": "Lista cargas de imprimer e gere los",
        "Description[id]": "Daftar tugas cetak dan mengelolanya",
        "Description[is]": "Telja upp prentverk og stýra þeim",
        "Description[it]": "Elenca e gestisci i processi di stampa",
        "Description[ka]": "ბეჭდვის დავალებების სია და მისი მართვა",
        "Description[ko]": "인쇄 작업을 보고 관리",
        "Description[lt]": "Išvardyti spausdinimo darbus ir juos tvarkyti",
        "Description[nl]": "Toon afdruktaken en beheer ze",
        "Description[nn]": "Vis og handsam utskriftsjobbar",
        "Description[pl]": "Stan i obsługa drukarek",
        "Description[pt]": "Imprimir as tarefas de impressão e geri-las",
        "Description[pt_BR]": "Lista e gerencia os trabalhos de impressão",
        "Description[ro]": "Enumeră sarcinile de imprimare și le gestionează",
        "Description[ru]": "Показ списка заданий печати и управление ими",
        "Description[sk]": "Vypíše tlačové úlohy a spravuje ich",
        "Description[sl]": "Seznam in upravljanje tiskalnih poslov",
        "Description[sv]": "Lista skrivarjobb och hantera dem",
        "Description[ta]": "அச்சுப் பணிகளைக் காட்டி அவற்றை நிர்வகிக்க உதவும்",
        "Description[tr]": "Yazdırma işlerini listele ve bunları yönet",
        "Description[uk]": "Показ списку завдань і керування ними",
        "Description[x-test]": "xxList print jobs and manage themxx",
        "Description[zh_CN]": "显示和管理打印任务",
        "Description[zh_TW]": "列出列印工作並管理它們",
        "EnabledByDefault": true,
        "Icon": "printer",
        "Id": "org.kde.plasma.printmanager",
        "License": "LGPL-2.0+",
        "Name": "Printers",
        "Name[ar]": "الطّابعات",
        "Name[az]": "Printerlər",
        "Name[be]": "Прынтары",
        "Name[bg]": "Принтери",
        "Name[bs]": "Štampači",
        "Name[ca@valencia]": "Impressores",
        "Name[ca]": "Impressores",
        "Name[cs]": "Tiskárny",
        "Name[da]": "Printere",
        "Name[de]": "Drucker",
        "Name[el]": "Εκτυπωτές",
        "Name[en_GB]": "Printers",
        "Name[es]": "Impresoras",
        "Name[et]": "Printerid",
        "Name[eu]": "Inprimagailuak",
        "Name[fi]": "Tulostimet",
        "Name[fr]": "Imprimantes",
        "Name[ga]": "Printéirí",
        "Name[gl]": "Impresoras",
        "Name[hu]": "Nyomtatók",
        "Name[ia]": "Imprimitores",
        "Name[id]": "Printer",
        "Name[is]": "Prentarar",
        "Name[it]": "Stampanti",
        "Name[ja]": "プリンタ",
        "Name[ka]": "პრინტერები",
        "Name[kk]": "Принтерлер",
        "Name[km]": "ម៉ាស៊ីន​បោះពុម្ព",
        "Name[ko]": "프린터",
        "Name[lt]": "Spausdintuvai",
        "Name[mai]": "मुद्रक",
        "Name[mr]": "छपाईयंत्रे",
        "Name[nb]": "Skrivere",
        "Name[nds]": "Druckers",
        "Name[nl]": "Printers",
        "Name[nn]": "Skrivarar",
        "Name[oc]": "Estampairas",
        "Name[pa]": "ਪਰਿੰਟਰ",
        "Name[pl]": "Drukarki",
        "Name[pt]": "Impressoras",
        "Name[pt_BR]": "Impressoras",
        "Name[ro]": "Imprimante",
        "Name[ru]": "Принтеры",
        "Name[sk]": "Tlačiarne",
        "Name[sl]": "Tiskalniki",
        "Name[sr@ijekavian]": "Штампачи",
        "Name[sr@ijekavianlatin]": "Štampači",
        "Name[sr@latin]": "Štampači",
        "Name[sr]": "Штампачи",
        "Name[sv]": "Skrivare",
        "Name[ta]": "அச்சுப்பொறிகள்",
        "Name[tg]": "Принтерҳо",
        "Name[tr]": "Yazıcılar",
        "Name[ug]": "پرىنتېرلار",
        "Name[uk]": "Принтери",
        "Name[x-test]": "xxPrintersxx",
        "Name[zh_CN]": "打印机",
        "Name[zh_TW]": "印表機",
        "ServiceTypes": [
            "Plasma/Applet"
        ],
        "Version": "0.3",
        "Website": "https://www.kde.org"
    },
    "X-Plasma-API": "declarativeappletscript",
    "X-Plasma-ConfigPlugins": [
        "kcm_printer_manager"
    ],
    "X-Plasma-DefaultSize": "650,270",
    "X-Plasma-MainScript": "ui/printmanager.qml",
    "X-Plasma-NotificationArea": "true",
    "X-Plasma-NotificationAreaCategory": "Hardware",
    "X-Plasma-OptionalExtensions": "LaunchApp"
}
